Extensible Data Pattern Searching Framework • nuggets
…
head(CO2)
#> Grouped Data: uptake ~ conc | Plant
#>   Plant   Type  Treatment conc uptake
#> 1   Qn1 Quebec nonchilled   95   16.0
#> 2   Qn1 Quebec nonchilled  175   30.4
#> 3   Qn1 Quebec nonchilled  250   34.8
#> 4   Qn1 Quebec nonchilled  350   37.2
#> 5   Qn1 Quebec nonchilled  500   35.3
#> 6   Qn1 Quebec nonchilled  675   39.2

The Plant, Type, and Treatment columns are factors and they will be transformed to dummy logical columns without any special arguments added to the partition() function:

partition(CO2, Plant:Treatment)
#> # A tibble: 84 × 18
#>     conc uptake `Plant=Qn1` `Plant=Qn2` `Plant=Qn3` `Plant=Qc1` `Plant=Qc3`
#>    <dbl>  <dbl> <lgl>       <lgl>       <lgl>       <lgl>       <lgl>      
#>  1    95   16   TRUE        FALSE       FALSE       FALSE       FALSE      
#>  2   175   30.4 TRUE        FALSE       FALSE       FALSE       FALSE      
#>  3   250   34.8 TRUE        FALSE       FALSE       FALSE       FALSE      
#>  4   350   37.2 TRUE        FALSE       FALSE       FALSE       FALSE      
#>  5   500   35.3 TRUE        FALSE       FALSE       FALSE       FALSE      
#>  6   675   39.2 TRUE        FALSE       FALSE       FALSE       FALSE      
#>  7  1000   39.7 TRUE        FALSE       FALSE       FALSE       FALSE      
#>  8    95   13.6 FALSE       TRUE        FALSE       FALSE       FALSE      
#>  9   175   27.3 FALSE       TRUE        FALSE       FALSE       FALSE      
#> 10   250   37.1 FALSE       TRUE        FALSE       FALSE       FALSE      
#> # ℹ 74 more rows
#> # ℹ 11 more variables: `Plant=Qc2` <lgl>, `Plant=Mn3` <lgl>, `Plant=Mn2` <lgl>,
#> #   `Plant=Mn1` <lgl>, `Plant=Mc2` <lgl>, `Plant=Mc3` <lgl>, `Plant=Mc1` <lgl>,
#> #   `Type=Quebec` <lgl>, `Type=Mississippi` <lgl>,
#> #   `Treatment=nonchilled` <lgl>, `Treatment=chilled` <lgl>

The conc and uptake columns are numeric. For instance, we can split the conc column into four intervals: (-Inf, 175], (175, 350], (350, 675], and (675, Inf). The breaks are thus c(-Inf, 175, 350, 675, Inf).

partition(CO2, conc, .method = "crisp", .breaks = c(-Inf, 175, 350, 675, Inf))
#> # A tibble: 84 × 8
#>    Plant Type   Treatment  uptake `conc=(-Inf;175]` `conc=(175;350]`
#>    <ord> <fct>  <fct>       <dbl> <lgl>             <lgl>           
#>  1 Qn1   Quebec nonchilled   16   TRUE              FALSE           
#>  2 Qn1   Quebec nonchilled   30.4 TRUE              FALSE           
#>  3 Qn1   Quebec nonchilled   34.8 FALSE             TRUE            
#>  4 Qn1   Quebec nonchilled   37.2 FALSE             TRUE            
#>  5 Qn1   Quebec nonchilled   35.3 FALSE             FALSE           
#>  6 Qn1   Quebec nonchilled   39.2 FALSE             FALSE           
#>  7 Qn1   Quebec nonchilled   39.7 FALSE             FALSE           
#>  8 Qn2   Quebec nonchilled   13.6 TRUE              FALSE           
#>  9 Qn2   Quebec nonchilled   27.3 TRUE              FALSE           
#> 10 Qn2   Quebec nonchilled   37.1 FALSE             TRUE            
#> # ℹ 74 more rows
#> # ℹ 2 more variables: `conc=(350;675]` <lgl>, `conc=(675;Inf]` <lgl>
…
the minimum confidence is 0.8 (confidence is the proportion of rows satisfying the consequent GIVEN the antecedent is true).

result <- dig_implications(fuzzyCO2,
                           antecedent = !starts_with("Treatment"),
                           consequent = starts_with("Treatment"),
                           disjoint = disj,
                           min_support = 0.02,
                           min_confidence = 0.8)

The result is a tibble with found rules. We may arrange it by support in descending order:

result <- arrange(result, desc(support))
print(result)
#> # A tibble: 188 × 8
#>    antecedent        consequent support confidence coverage conseq_support count
#>    <chr>             <chr>        <dbl>      <dbl>    <dbl>          <dbl> <dbl>
#>  1 {Type=Mississipp… {Treatmen…  0.135       0.895   0.151             0.5  11.4
#>  2 {Plant=Mc3}       {Treatmen…  0.0833      1       0.0833            0.5   7  
#>  3 {Plant=Mc1}       {Treatmen…  0.0833      1       0.0833            0.5   7  
#>  4 {Plant=Qn1}       {Treatmen…  0.0833      1       0.0833            0.5   7  
#>  5 {Plant=Mc2}       {Treatmen…  0.0833      1       0.0833            0.5   7  
#>  6 {Plant=Mn1}       {Treatmen…  0.0833      1       0.0833            0.5   7  
#>  7 {Plant=Mn2}       {Treatmen…  0.0833      1       0.0833            0.5   7  
#>  8 {Plant=Mn3}       {Treatmen…  0.0833      1       0.0833            0.5   7  
#>  9 {Plant=Qc2}       {Treatmen…  0.0833      1       0.0833            0.5   7  
#> 10 {Plant=Qc3}       {Treatmen…  0.0833      1       0.0833            0.5   7  
#> # ℹ 178 more rows
#> # ℹ 1 more variable: antecedent_length <int>
…
As we return a list of lists in the callback function, we have to flatten the first level of lists in the result and binding it into a data frame:

result <- result |>
  unlist(recursive = FALSE) |>
  map(as_tibble) |>
  do.call(rbind, args = _) |>
  arrange(desc(support))

print(result)
#> # A tibble: 188 × 4
#>    antecedent                           consequent            support confidence
#>    <chr>                                <chr>                   <dbl>      <dbl>
#>  1 {Type=Mississippi,uptake=(18;28;37)} {Treatment=nonchille…  0.135       0.895
#>  2 {Plant=Mc3}                          {Treatment=chilled}    0.0833      1    
#>  3 {Plant=Mc1}                          {Treatment=chilled}    0.0833      1    
#>  4 {Plant=Qn1}                          {Treatment=nonchille…  0.0833      1    
#>  5 {Plant=Mc2}                          {Treatment=chilled}    0.0833      1    
#>  6 {Plant=Mn1}                          {Treatment=nonchille…  0.0833      1    
#>  7 {Plant=Mn2}                          {Treatment=nonchille…  0.0833      1    
#>  8 {Plant=Mn3}                          {Treatment=nonchille…  0.0833      1    
#>  9 {Plant=Qc2}                          {Treatment=chilled}    0.0833      1    
#> 10 {Plant=Qc3}                          {Treatment=chilled}    0.0833      1    
#> # ℹ 178 more rows
…
