…
The result is a tibble with found rules. We may arrange it by support in
descending order:

``` r
result <- arrange(result, desc(support))
print(result)
#> # A tibble: 188 × 8
#>    antecedent        consequent support confidence coverage conseq_support count
#>    <chr>             <chr>        <dbl>      <dbl>    <dbl>          <dbl> <dbl>
#>  1 {Type=Mississipp… {Treatmen…  0.135       0.895   0.151             0.5  11.4
#>  2 {Plant=Mc3}       {Treatmen…  0.0833      1       0.0833            0.5   7  
#>  3 {Plant=Mc1}       {Treatmen…  0.0833      1       0.0833            0.5   7  
#>  4 {Plant=Qn1}       {Treatmen…  0.0833      1       0.0833            0.5   7  
#>  5 {Plant=Mc2}       {Treatmen…  0.0833      1       0.0833            0.5   7  
#>  6 {Plant=Mn1}       {Treatmen…  0.0833      1       0.0833            0.5   7  
#>  7 {Plant=Mn2}       {Treatmen…  0.0833      1       0.0833            0.5   7  
#>  8 {Plant=Mn3}       {Treatmen…  0.0833      1       0.0833            0.5   7  
#>  9 {Plant=Qc2}       {Treatmen…  0.0833      1       0.0833            0.5   7  
#> 10 {Plant=Qc3}       {Treatmen…  0.0833      1       0.0833            0.5   7  
#> # ℹ 178 more rows
#> # ℹ 1 more variable: antecedent_length <int>
```
…
As we return a list of lists in the callback function, we have to
flatten the first level of lists in the result and binding it into a
data frame:

``` r
result <- result %>%
  unlist(recursive = FALSE) %>%
  map(as_tibble) %>%
  do.call(rbind, .) %>%
  arrange(desc(support))

print(result)
#> # A tibble: 188 × 4
#>    antecedent                  consequent             support confidence
#>    <chr>                       <chr>                    <dbl>      <dbl>
#>  1 {Type=Mississippi,uptake=2} {Treatment=nonchilled}  0.135       0.895
#>  2 {Plant=Mc3}                 {Treatment=chilled}     0.0833      1    
#>  3 {Plant=Mc1}                 {Treatment=chilled}     0.0833      1    
#>  4 {Plant=Qn1}                 {Treatment=nonchilled}  0.0833      1    
#>  5 {Plant=Mc2}                 {Treatment=chilled}     0.0833      1    
#>  6 {Plant=Mn1}                 {Treatment=nonchilled}  0.0833      1    
#>  7 {Plant=Mn2}                 {Treatment=nonchilled}  0.0833      1    
#>  8 {Plant=Mn3}                 {Treatment=nonchilled}  0.0833      1    
#>  9 {Plant=Qc2}                 {Treatment=chilled}     0.0833      1    
#> 10 {Plant=Qc3}                 {Treatment=chilled}     0.0833      1    
#> # ℹ 178 more rows
```
