Search for association rules — dig_associations • nuggets
…
    Michal Burda

    Examples

d <- partition(mtcars, .breaks = 2)
#> Warning: n same as number of different finite values\neach different finite value is a separate class
#> Warning: n same as number of different finite values\neach different finite value is a separate class
dig_associations(d,
                 antecedent = !starts_with("mpg"),
                 consequent = starts_with("mpg"),
                 min_support = 0.3,
                 min_confidence = 0.8,
                 measures = c("lift", "conviction"))
#> # A tibble: 524 × 10
#>    antecedent        consequent support confidence coverage conseq_support count
#>    <chr>             <chr>        <dbl>      <dbl>    <dbl>          <dbl> <dbl>
#>  1 {carb=(-Inf;4.5]… {mpg=(-In…   0.344      0.846    0.406          0.719    11
#>  2 {carb=(-Inf;4.5]… {mpg=(-In…   0.312      0.909    0.344          0.719    10
#>  3 {am=(-Inf;0.5],c… {mpg=(-In…   0.312      0.909    0.344          0.719    10
#>  4 {am=(-Inf;0.5],c… {mpg=(-In…   0.375      0.857    0.438          0.719    12
#>  5 {carb=(-Inf;4.5]… {mpg=(-In…   0.5        0.889    0.562          0.719    16
#>  6 {carb=(-Inf;4.5]… {mpg=(-In…   0.375      1        0.375          0.719    12
#>  7 {am=(-Inf;0.5],c… {mpg=(-In…   0.375      1        0.375          0.719    12
#>  8 {am=(-Inf;0.5],c… {mpg=(-In…   0.375      1        0.375          0.719    12
#>  9 {am=(-Inf;0.5],c… {mpg=(-In…   0.375      1        0.375          0.719    12
#> 10 {am=(-Inf;0.5],c… {mpg=(-In…   0.375      1        0.375          0.719    12
#> # ℹ 514 more rows
#> # ℹ 3 more variables: antecedent_length <int>, lift <dbl>, conviction <dbl>
…
