…
## Author

Michal Burda

## Examples

``` r
d <- partition(mtcars, .breaks = 2)
dig_associations(d,
                 antecedent = !starts_with("mpg"),
                 consequent = starts_with("mpg"),
                 min_support = 0.3,
                 min_confidence = 0.8)
#> # A tibble: 524 × 9
#>    antecedent  consequent support confidence coverage conseq_support  lift count
#>    <chr>       <chr>        <dbl>      <dbl>    <dbl>          <dbl> <dbl> <dbl>
#>  1 {carb=(-In… {mpg=(-In…   0.344      0.846    0.406          0.719  1.18    11
#>  2 {carb=(-In… {mpg=(-In…   0.312      0.909    0.344          0.719  1.26    10
#>  3 {am=(-Inf;… {mpg=(-In…   0.312      0.909    0.344          0.719  1.26    10
#>  4 {am=(-Inf;… {mpg=(-In…   0.375      0.857    0.438          0.719  1.19    12
#>  5 {carb=(-In… {mpg=(-In…   0.5        0.889    0.562          0.719  1.24    16
#>  6 {carb=(-In… {mpg=(-In…   0.375      1        0.375          0.719  1.39    12
#>  7 {am=(-Inf;… {mpg=(-In…   0.375      1        0.375          0.719  1.39    12
#>  8 {am=(-Inf;… {mpg=(-In…   0.375      1        0.375          0.719  1.39    12
#>  9 {am=(-Inf;… {mpg=(-In…   0.375      1        0.375          0.719  1.39    12
#> 10 {am=(-Inf;… {mpg=(-In…   0.375      1        0.375          0.719  1.39    12
#> # ℹ 514 more rows
#> # ℹ 1 more variable: antecedent_length <int>
```
