Search for conditional correlations — dig_correlations • nuggets
…
    Author

    Michal Burda

    Examples

# convert iris$Species into dummy logical variables
d <- partition(iris, Species)

# find conditional correlations between all pairs of numeric variables
dig_correlations(d,
                 condition = where(is.logical),
                 xvars = Sepal.Length:Petal.Width,
                 yvars = Sepal.Length:Petal.Width)
#> # A tibble: 24 × 10
#>    condition      support xvar  yvar  estimate  p_value method alternative  rows
#>    <chr>            <dbl> <chr> <chr>    <dbl>    <dbl> <chr>  <chr>       <int>
#>  1 {}               1     Sepa… Sepa…   -0.118 1.52e- 1 Pears… two.sided     150
#>  2 {}               1     Sepa… Peta…    0.872 1.04e-47 Pears… two.sided     150
#>  3 {}               1     Sepa… Peta…    0.818 2.33e-37 Pears… two.sided     150
#>  4 {}               1     Sepa… Peta…   -0.428 4.51e- 8 Pears… two.sided     150
#>  5 {}               1     Sepa… Peta…   -0.366 4.07e- 6 Pears… two.sided     150
#>  6 {}               1     Peta… Peta…    0.963 4.68e-86 Pears… two.sided     150
#>  7 {Species=seto…   0.333 Sepa… Sepa…    0.743 6.71e-10 Pears… two.sided      50
#>  8 {Species=seto…   0.333 Sepa… Peta…    0.267 6.07e- 2 Pears… two.sided      50
#>  9 {Species=seto…   0.333 Sepa… Peta…    0.278 5.05e- 2 Pears… two.sided      50
#> 10 {Species=seto…   0.333 Sepa… Peta…    0.178 2.17e- 1 Pears… two.sided      50
#> # ℹ 14 more rows
#> # ℹ 1 more variable: condition_length <int>
…
