Convert data-frame columns into Boolean or fuzzy predicates — partition • nuggets
…
# Ordered factor -> only consecutive subsets are created
x <- tibble::tibble(a = ordered(c("low", "medium", "high", "medium"),
                                levels = c("low", "medium", "high")))
partition(x, a, .subsets = 2)
#> # A tibble: 4 × 2
#>   `a=low,medium` `a=medium,high`
#>   <lgl>          <lgl>          
#> 1 TRUE           FALSE          
#> 2 TRUE           TRUE           
#> 3 FALSE          TRUE           
#> 4 TRUE           TRUE           

# Keep original selected columns
partition(CO2, Plant, .keep = TRUE)
#> # A tibble: 84 × 17
#>    Plant Type   Treatment   conc uptake `Plant=Qn1` `Plant=Qn2` `Plant=Qn3`
#>    <ord> <fct>  <fct>      <dbl>  <dbl> <lgl>       <lgl>       <lgl>      
#>  1 Qn1   Quebec nonchilled    95   16   TRUE        FALSE       FALSE      
#>  2 Qn1   Quebec nonchilled   175   30.4 TRUE        FALSE       FALSE      
#>  3 Qn1   Quebec nonchilled   250   34.8 TRUE        FALSE       FALSE      
#>  4 Qn1   Quebec nonchilled   350   37.2 TRUE        FALSE       FALSE      
#>  5 Qn1   Quebec nonchilled   500   35.3 TRUE        FALSE       FALSE      
#>  6 Qn1   Quebec nonchilled   675   39.2 TRUE        FALSE       FALSE      
#>  7 Qn1   Quebec nonchilled  1000   39.7 TRUE        FALSE       FALSE      
#>  8 Qn2   Quebec nonchilled    95   13.6 FALSE       TRUE        FALSE      
#>  9 Qn2   Quebec nonchilled   175   27.3 FALSE       TRUE        FALSE      
#> 10 Qn2   Quebec nonchilled   250   37.1 FALSE       TRUE        FALSE      
#> # ℹ 74 more rows
#> # ℹ 9 more variables: `Plant=Qc1` <lgl>, `Plant=Qc3` <lgl>, `Plant=Qc2` <lgl>,
#> #   `Plant=Mn3` <lgl>, `Plant=Mn2` <lgl>, `Plant=Mn1` <lgl>, `Plant=Mc2` <lgl>,
#> #   `Plant=Mc3` <lgl>, `Plant=Mc1` <lgl>
…
# Numeric data treated as ordered categories with consecutive pairs
partition(x, a, .method = "dummy", .subsets = 2)
#> # A tibble: 5 × 3
#>   `a=1,2` `a=2,3` `a=3,4`
#>   <lgl>   <lgl>   <lgl>  
#> 1 TRUE    FALSE   FALSE  
#> 2 TRUE    TRUE    FALSE  
#> 3 TRUE    TRUE    FALSE  
#> 4 FALSE   TRUE    TRUE   
#> 5 FALSE   FALSE   TRUE   

# Crisp transformation using equal-width bins
partition(CO2, conc, .method = "crisp", .breaks = 4)
#> # A tibble: 84 × 8
#>    Plant Type   Treatment  uptake `conc=(-Inf;321]` `conc=(321;548]`
#>    <ord> <fct>  <fct>       <dbl> <lgl>             <lgl>           
#>  1 Qn1   Quebec nonchilled   16   TRUE              FALSE           
#>  2 Qn1   Quebec nonchilled   30.4 TRUE              FALSE           
#>  3 Qn1   Quebec nonchilled   34.8 TRUE              FALSE           
#>  4 Qn1   Quebec nonchilled   37.2 FALSE             TRUE            
#>  5 Qn1   Quebec nonchilled   35.3 FALSE             TRUE            
#>  6 Qn1   Quebec nonchilled   39.2 FALSE             FALSE           
#>  7 Qn1   Quebec nonchilled   39.7 FALSE             FALSE           
#>  8 Qn2   Quebec nonchilled   13.6 TRUE              FALSE           
#>  9 Qn2   Quebec nonchilled   27.3 TRUE              FALSE           
#> 10 Qn2   Quebec nonchilled   37.1 TRUE              FALSE           
#> # ℹ 74 more rows
#> # ℹ 2 more variables: `conc=(548;774]` <lgl>, `conc=(774;Inf]` <lgl>

# Crisp transformation using quantile-based bins
partition(CO2, conc, .method = "crisp", .breaks = 4, .style = "quantile")
#> # A tibble: 84 × 8
#>    Plant Type   Treatment  uptake `conc=(-Inf;175]` `conc=(175;350]`
#>    <ord> <fct>  <fct>       <dbl> <lgl>             <lgl>           
#>  1 Qn1   Quebec nonchilled   16   TRUE              FALSE           
#>  2 Qn1   Quebec nonchilled   30.4 TRUE              FALSE           
#>  3 Qn1   Quebec nonchilled   34.8 FALSE             TRUE            
#>  4 Qn1   Quebec nonchilled   37.2 FALSE             TRUE            
#>  5 Qn1   Quebec nonchilled   35.3 FALSE             FALSE           
#>  6 Qn1   Quebec nonchilled   39.2 FALSE             FALSE           
#>  7 Qn1   Quebec nonchilled   39.7 FALSE             FALSE           
#>  8 Qn2   Quebec nonchilled   13.6 TRUE              FALSE           
#>  9 Qn2   Quebec nonchilled   27.3 TRUE              FALSE           
#> 10 Qn2   Quebec nonchilled   37.1 FALSE             TRUE            
#> # ℹ 74 more rows
#> # ℹ 2 more variables: `conc=(350;675]` <lgl>, `conc=(675;Inf]` <lgl>

# Crisp transformation using k-means clustering for breakpoints
partition(CO2, conc, .method = "crisp", .breaks = 4, .style = "kmeans")
#> # A tibble: 84 × 8
#>    Plant Type   Treatment  uptake `conc=(-Inf;212]` `conc=(212;425]`
#>    <ord> <fct>  <fct>       <dbl> <lgl>             <lgl>           
#>  1 Qn1   Quebec nonchilled   16   TRUE              FALSE           
#>  2 Qn1   Quebec nonchilled   30.4 TRUE              FALSE           
#>  3 Qn1   Quebec nonchilled   34.8 FALSE             TRUE            
#>  4 Qn1   Quebec nonchilled   37.2 FALSE             TRUE            
#>  5 Qn1   Quebec nonchilled   35.3 FALSE             FALSE           
#>  6 Qn1   Quebec nonchilled   39.2 FALSE             FALSE           
#>  7 Qn1   Quebec nonchilled   39.7 FALSE             FALSE           
#>  8 Qn2   Quebec nonchilled   13.6 TRUE              FALSE           
#>  9 Qn2   Quebec nonchilled   27.3 TRUE              FALSE           
#> 10 Qn2   Quebec nonchilled   37.1 FALSE             TRUE            
#> # ℹ 74 more rows
#> # ℹ 2 more variables: `conc=(425;838]` <lgl>, `conc=(838;Inf]` <lgl>

# Crisp transformation using Lloyd algorithm for k-means breakpoints
partition(CO2, conc, .method = "crisp", .breaks = 4, .style = "kmeans",
          .style_params = list(algorithm = "Lloyd"))
#> # A tibble: 84 × 8
#>    Plant Type   Treatment  uptake `conc=(-Inf;300]` `conc=(300;588]`
#>    <ord> <fct>  <fct>       <dbl> <lgl>             <lgl>           
#>  1 Qn1   Quebec nonchilled   16   TRUE              FALSE           
#>  2 Qn1   Quebec nonchilled   30.4 TRUE              FALSE           
#>  3 Qn1   Quebec nonchilled   34.8 TRUE              FALSE           
#>  4 Qn1   Quebec nonchilled   37.2 FALSE             TRUE            
#>  5 Qn1   Quebec nonchilled   35.3 FALSE             TRUE            
#>  6 Qn1   Quebec nonchilled   39.2 FALSE             FALSE           
#>  7 Qn1   Quebec nonchilled   39.7 FALSE             FALSE           
#>  8 Qn2   Quebec nonchilled   13.6 TRUE              FALSE           
#>  9 Qn2   Quebec nonchilled   27.3 TRUE              FALSE           
#> 10 Qn2   Quebec nonchilled   37.1 TRUE              FALSE           
#> # ℹ 74 more rows
#> # ℹ 2 more variables: `conc=(588;838]` <lgl>, `conc=(838;Inf]` <lgl>

# Crisp transformation with manually specified breaks
partition(CO2, conc, .method = "crisp",
          .breaks = c(-Inf, 200, 500, 800, Inf))
#> # A tibble: 84 × 8
#>    Plant Type   Treatment  uptake `conc=(-Inf;200]` `conc=(200;500]`
#>    <ord> <fct>  <fct>       <dbl> <lgl>             <lgl>           
#>  1 Qn1   Quebec nonchilled   16   TRUE              FALSE           
#>  2 Qn1   Quebec nonchilled   30.4 TRUE              FALSE           
#>  3 Qn1   Quebec nonchilled   34.8 FALSE             TRUE            
#>  4 Qn1   Quebec nonchilled   37.2 FALSE             TRUE            
#>  5 Qn1   Quebec nonchilled   35.3 FALSE             TRUE            
#>  6 Qn1   Quebec nonchilled   39.2 FALSE             FALSE           
#>  7 Qn1   Quebec nonchilled   39.7 FALSE             FALSE           
#>  8 Qn2   Quebec nonchilled   13.6 TRUE              FALSE           
#>  9 Qn2   Quebec nonchilled   27.3 TRUE              FALSE           
#> 10 Qn2   Quebec nonchilled   37.1 FALSE             TRUE            
#> # ℹ 74 more rows
#> # ℹ 2 more variables: `conc=(500;800]` <lgl>, `conc=(800;Inf]` <lgl>

# Crisp transformation with overlapping intervals
partition(CO2, conc, .method = "crisp",
          .breaks = c(1, 3, 5, 7, 9, 11),
          .span = 2, .inc = 1)
#> # A tibble: 84 × 8
#>    Plant Type   Treatment  uptake `conc=(1;5]` `conc=(3;7]` `conc=(5;9]`
#>    <ord> <fct>  <fct>       <dbl> <lgl>        <lgl>        <lgl>       
#>  1 Qn1   Quebec nonchilled   16   FALSE        FALSE        FALSE       
#>  2 Qn1   Quebec nonchilled   30.4 FALSE        FALSE        FALSE       
#>  3 Qn1   Quebec nonchilled   34.8 FALSE        FALSE        FALSE       
#>  4 Qn1   Quebec nonchilled   37.2 FALSE        FALSE        FALSE       
#>  5 Qn1   Quebec nonchilled   35.3 FALSE        FALSE        FALSE       
#>  6 Qn1   Quebec nonchilled   39.2 FALSE        FALSE        FALSE       
#>  7 Qn1   Quebec nonchilled   39.7 FALSE        FALSE        FALSE       
#>  8 Qn2   Quebec nonchilled   13.6 FALSE        FALSE        FALSE       
#>  9 Qn2   Quebec nonchilled   27.3 FALSE        FALSE        FALSE       
#> 10 Qn2   Quebec nonchilled   37.1 FALSE        FALSE        FALSE       
#> # ℹ 74 more rows
#> # ℹ 1 more variable: `conc=(7;11]` <lgl>

# Crisp transformation with left-closed, right-open intervals
partition(CO2, conc, .method = "crisp", .breaks = 4, .right = FALSE)
#> # A tibble: 84 × 8
#>    Plant Type   Treatment  uptake `conc=[-Inf;321)` `conc=[321;548)`
#>    <ord> <fct>  <fct>       <dbl> <lgl>             <lgl>           
#>  1 Qn1   Quebec nonchilled   16   TRUE              FALSE           
#>  2 Qn1   Quebec nonchilled   30.4 TRUE              FALSE           
#>  3 Qn1   Quebec nonchilled   34.8 TRUE              FALSE           
#>  4 Qn1   Quebec nonchilled   37.2 FALSE             TRUE            
#>  5 Qn1   Quebec nonchilled   35.3 FALSE             TRUE            
#>  6 Qn1   Quebec nonchilled   39.2 FALSE             FALSE           
#>  7 Qn1   Quebec nonchilled   39.7 FALSE             FALSE           
#>  8 Qn2   Quebec nonchilled   13.6 TRUE              FALSE           
#>  9 Qn2   Quebec nonchilled   27.3 TRUE              FALSE           
#> 10 Qn2   Quebec nonchilled   37.1 TRUE              FALSE           
#> # ℹ 74 more rows
#> # ℹ 2 more variables: `conc=[548;774)` <lgl>, `conc=[774;Inf)` <lgl>

# Fuzzy triangular transformation
partition(CO2, conc:uptake, .method = "triangle", .breaks = 3)
#> # A tibble: 84 × 9
#>    Plant Type   Treatment  `conc=(-Inf;95;548)` `conc=(95;548;1000)`
#>    <ord> <fct>  <fct>                     <dbl>                <dbl>
#>  1 Qn1   Quebec nonchilled                1                    0    
#>  2 Qn1   Quebec nonchilled                0.823                0.177
#>  3 Qn1   Quebec nonchilled                0.658                0.342
#>  4 Qn1   Quebec nonchilled                0.437                0.563
#>  5 Qn1   Quebec nonchilled                0.106                0.894
#>  6 Qn1   Quebec nonchilled                0                    0.719
#>  7 Qn1   Quebec nonchilled                0                    0    
#>  8 Qn2   Quebec nonchilled                1                    0    
#>  9 Qn2   Quebec nonchilled                0.823                0.177
#> 10 Qn2   Quebec nonchilled                0.658                0.342
#> # ℹ 74 more rows
#> # ℹ 4 more variables: `conc=(548;1000;Inf)` <dbl>,
#> #   `uptake=(-Inf;7.7;26.6)` <dbl>, `uptake=(7.7;26.6;45.5)` <dbl>,
#> #   `uptake=(26.6;45.5;Inf)` <dbl>

# Raised-cosine fuzzy predicates
partition(CO2, conc:uptake, .method = "raisedcos", .breaks = 3)
#> # A tibble: 84 × 9
#>    Plant Type   Treatment  `conc=(-Inf;95;548)` `conc=(95;548;1000)`
#>    <ord> <fct>  <fct>                     <dbl>                <dbl>
#>  1 Qn1   Quebec nonchilled               1                    0     
#>  2 Qn1   Quebec nonchilled               0.925                0.0750
#>  3 Qn1   Quebec nonchilled               0.738                0.262 
#>  4 Qn1   Quebec nonchilled               0.402                0.598 
#>  5 Qn1   Quebec nonchilled               0.0274               0.973 
#>  6 Qn1   Quebec nonchilled               0                    0.818 
#>  7 Qn1   Quebec nonchilled               0                    0     
#>  8 Qn2   Quebec nonchilled               1                    0     
#>  9 Qn2   Quebec nonchilled               0.925                0.0750
#> 10 Qn2   Quebec nonchilled               0.738                0.262 
#> # ℹ 74 more rows
#> # ℹ 4 more variables: `conc=(548;1000;Inf)` <dbl>,
#> #   `uptake=(-Inf;7.7;26.6)` <dbl>, `uptake=(7.7;26.6;45.5)` <dbl>,
#> #   `uptake=(26.6;45.5;Inf)` <dbl>

# Trapezoidal fuzzy predicates
partition(CO2, conc:uptake, .method = "triangle", .breaks = 3, .span = 2)
#> # A tibble: 84 × 9
#>    Plant Type   Treatment  `conc=(-Inf;95;397;698)` `conc=(95;397;698;1000)`
#>    <ord> <fct>  <fct>                         <dbl>                    <dbl>
#>  1 Qn1   Quebec nonchilled                   1                         0    
#>  2 Qn1   Quebec nonchilled                   1                         0.265
#>  3 Qn1   Quebec nonchilled                   1                         0.513
#>  4 Qn1   Quebec nonchilled                   1                         0.844
#>  5 Qn1   Quebec nonchilled                   0.658                     1    
#>  6 Qn1   Quebec nonchilled                   0.0764                    1    
#>  7 Qn1   Quebec nonchilled                   0                         0    
#>  8 Qn2   Quebec nonchilled                   1                         0    
#>  9 Qn2   Quebec nonchilled                   1                         0.265
#> 10 Qn2   Quebec nonchilled                   1                         0.513
#> # ℹ 74 more rows
#> # ℹ 4 more variables: `conc=(397;698;1000;Inf)` <dbl>,
#> #   `uptake=(-Inf;7.7;20.3;32.9)` <dbl>, `uptake=(7.7;20.3;32.9;45.5)` <dbl>,
#> #   `uptake=(20.3;32.9;45.5;Inf)` <dbl>

# Overlapping trapezoidal fuzzy predicates (Ruspini condition)
partition(CO2, conc:uptake, .method = "triangle", .breaks = 3,
          .span = 2, .inc = 2)
#> # A tibble: 84 × 9
#>    Plant Type   Treatment  `conc=(-Inf;95;276;457)` `conc=(276;457;638;819)`
#>    <ord> <fct>  <fct>                         <dbl>                    <dbl>
#>  1 Qn1   Quebec nonchilled                    1                        0    
#>  2 Qn1   Quebec nonchilled                    1                        0    
#>  3 Qn1   Quebec nonchilled                    1                        0    
#>  4 Qn1   Quebec nonchilled                    0.591                    0.409
#>  5 Qn1   Quebec nonchilled                    0                        1    
#>  6 Qn1   Quebec nonchilled                    0                        0.796
#>  7 Qn1   Quebec nonchilled                    0                        0    
#>  8 Qn2   Quebec nonchilled                    1                        0    
#>  9 Qn2   Quebec nonchilled                    1                        0    
#> 10 Qn2   Quebec nonchilled                    1                        0    
#> # ℹ 74 more rows
#> # ℹ 4 more variables: `conc=(638;819;1000;Inf)` <dbl>,
#> #   `uptake=(-Inf;7.7;15.3;22.8)` <dbl>, `uptake=(15.3;22.8;30.4;37.9)` <dbl>,
#> #   `uptake=(30.4;37.9;45.5;Inf)` <dbl>

# Fuzzy transformation with manually specified breaks
partition(CO2, uptake,
          .method = "triangle",
          .breaks = c(-Inf, 7.7, 28.3, 45.5, Inf))
#> # A tibble: 84 × 7
#>    Plant Type   Treatment   conc `uptake=(-Inf;7.7;28.3)` uptake=(7.7;28.3;45.…¹
#>    <ord> <fct>  <fct>      <dbl>                    <dbl>                  <dbl>
#>  1 Qn1   Quebec nonchilled    95                   0.597                   0.403
#>  2 Qn1   Quebec nonchilled   175                   0                       0.878
#>  3 Qn1   Quebec nonchilled   250                   0                       0.622
#>  4 Qn1   Quebec nonchilled   350                   0                       0.483
#>  5 Qn1   Quebec nonchilled   500                   0                       0.593
#>  6 Qn1   Quebec nonchilled   675                   0                       0.366
#>  7 Qn1   Quebec nonchilled  1000                   0                       0.337
#>  8 Qn2   Quebec nonchilled    95                   0.714                   0.286
#>  9 Qn2   Quebec nonchilled   175                   0.0485                  0.951
#> 10 Qn2   Quebec nonchilled   250                   0                       0.488
#> # ℹ 74 more rows
#> # ℹ abbreviated name: ¹​`uptake=(7.7;28.3;45.5)`
#> # ℹ 1 more variable: `uptake=(28.3;45.5;Inf)` <dbl>

# Fuzzy transformation with custom labels
partition(CO2, uptake,
          .method = "triangle",
          .breaks = c(-Inf, 7.7, 28.3, 45.5, Inf),
          .labels = c("low", "medium", "high"))
#> # A tibble: 84 × 7
#>    Plant Type   Treatment   conc `uptake=low` `uptake=medium` `uptake=high`
#>    <ord> <fct>  <fct>      <dbl>        <dbl>           <dbl>         <dbl>
#>  1 Qn1   Quebec nonchilled    95       0.597            0.403         0    
#>  2 Qn1   Quebec nonchilled   175       0                0.878         0.122
#>  3 Qn1   Quebec nonchilled   250       0                0.622         0.378
#>  4 Qn1   Quebec nonchilled   350       0                0.483         0.517
#>  5 Qn1   Quebec nonchilled   500       0                0.593         0.407
#>  6 Qn1   Quebec nonchilled   675       0                0.366         0.634
#>  7 Qn1   Quebec nonchilled  1000       0                0.337         0.663
#>  8 Qn2   Quebec nonchilled    95       0.714            0.286         0    
#>  9 Qn2   Quebec nonchilled   175       0.0485           0.951         0    
#> 10 Qn2   Quebec nonchilled   250       0                0.488         0.512
#> # ℹ 74 more rows

# Different settings can be applied in successive calls
CO2 |>
  partition(Plant:Treatment) |>
  partition(conc,
            .method = "raisedcos",
            .breaks = c(-Inf, 95, 175, 350, 675, 1000, Inf)) |>
  partition(uptake,
            .method = "triangle",
            .breaks = c(-Inf, 7.7, 28.3, 45.5, Inf),
            .labels = c("low", "medium", "high"))
#> # A tibble: 84 × 24
#>    `Plant=Qn1` `Plant=Qn2` `Plant=Qn3` `Plant=Qc1` `Plant=Qc3` `Plant=Qc2`
#>    <lgl>       <lgl>       <lgl>       <lgl>       <lgl>       <lgl>      
#>  1 TRUE        FALSE       FALSE       FALSE       FALSE       FALSE      
#>  2 TRUE        FALSE       FALSE       FALSE       FALSE       FALSE      
#>  3 TRUE        FALSE       FALSE       FALSE       FALSE       FALSE      
#>  4 TRUE        FALSE       FALSE       FALSE       FALSE       FALSE      
#>  5 TRUE        FALSE       FALSE       FALSE       FALSE       FALSE      
#>  6 TRUE        FALSE       FALSE       FALSE       FALSE       FALSE      
#>  7 TRUE        FALSE       FALSE       FALSE       FALSE       FALSE      
#>  8 FALSE       TRUE        FALSE       FALSE       FALSE       FALSE      
#>  9 FALSE       TRUE        FALSE       FALSE       FALSE       FALSE      
#> 10 FALSE       TRUE        FALSE       FALSE       FALSE       FALSE      
#> # ℹ 74 more rows
#> # ℹ 18 more variables: `Plant=Mn3` <lgl>, `Plant=Mn2` <lgl>, `Plant=Mn1` <lgl>,
#> #   `Plant=Mc2` <lgl>, `Plant=Mc3` <lgl>, `Plant=Mc1` <lgl>,
#> #   `Type=Quebec` <lgl>, `Type=Mississippi` <lgl>,
#> #   `Treatment=nonchilled` <lgl>, `Treatment=chilled` <lgl>,
#> #   `conc=(-Inf;95;175)` <dbl>, `conc=(95;175;350)` <dbl>,
#> #   `conc=(175;350;675)` <dbl>, `conc=(350;675;1000)` <dbl>, …
…
