…
Factors are transformed to dummy logical columns by the
[`partition()`](https://beerda.github.io/nuggets/reference/partition.md)
function automatically:

``` r
partition(mtcars_example, cyl)
#> # A tibble: 32 × 13
#>      mpg  disp    hp  drat    wt  qsec    vs    am  gear  carb `cyl=four`
#>    <dbl> <dbl> <dbl> <dbl> <dbl> <dbl> <dbl> <dbl> <dbl> <dbl> <lgl>     
#>  1  21    160    110  3.9   2.62  16.5     0     1     4     4 FALSE     
#>  2  21    160    110  3.9   2.88  17.0     0     1     4     4 FALSE     
#>  3  22.8  108     93  3.85  2.32  18.6     1     1     4     1 TRUE      
#>  4  21.4  258    110  3.08  3.22  19.4     1     0     3     1 FALSE     
#>  5  18.7  360    175  3.15  3.44  17.0     0     0     3     2 FALSE     
#>  6  18.1  225    105  2.76  3.46  20.2     1     0     3     1 FALSE     
#>  7  14.3  360    245  3.21  3.57  15.8     0     0     3     4 FALSE     
#>  8  24.4  147.    62  3.69  3.19  20       1     0     4     2 TRUE      
#>  9  22.8  141.    95  3.92  3.15  22.9     1     0     4     2 TRUE      
#> 10  19.2  168.   123  3.92  3.44  18.3     1     0     4     4 FALSE     
#>    `cyl=six` `cyl=eight`
#>    <lgl>     <lgl>      
#>  1 TRUE      FALSE      
#>  2 TRUE      FALSE      
#>  3 FALSE     FALSE      
#>  4 TRUE      FALSE      
#>  5 FALSE     TRUE       
#>  6 TRUE      FALSE      
#>  7 FALSE     TRUE       
#>  8 FALSE     FALSE      
#>  9 FALSE     FALSE      
#> 10 TRUE      FALSE      
#> # ℹ 22 more rows
```

The `vs`, `am`, and `gear` columns are numeric but actually represent
categories. To transform them to dummy logical columns in the same way
as factors, we can use the
[`partition()`](https://beerda.github.io/nuggets/reference/partition.md)
function with the `.method` argument set to `"dummy"`:

``` r
partition(mtcars_example, vs:gear, .method = "dummy")
#> # A tibble: 32 × 15
#>      mpg cyl    disp    hp  drat    wt  qsec  carb `vs=0` `vs=1` `am=0` `am=1`
#>    <dbl> <fct> <dbl> <dbl> <dbl> <dbl> <dbl> <dbl> <lgl>  <lgl>  <lgl>  <lgl> 
#>  1  21   six    160    110  3.9   2.62  16.5     4 TRUE   FALSE  FALSE  TRUE  
#>  2  21   six    160    110  3.9   2.88  17.0     4 TRUE   FALSE  FALSE  TRUE  
#>  3  22.8 four   108     93  3.85  2.32  18.6     1 FALSE  TRUE   FALSE  TRUE  
#>  4  21.4 six    258    110  3.08  3.22  19.4     1 FALSE  TRUE   TRUE   FALSE 
#>  5  18.7 eight  360    175  3.15  3.44  17.0     2 TRUE   FALSE  TRUE   FALSE 
#>  6  18.1 six    225    105  2.76  3.46  20.2     1 FALSE  TRUE   TRUE   FALSE 
#>  7  14.3 eight  360    245  3.21  3.57  15.8     4 TRUE   FALSE  TRUE   FALSE 
#>  8  24.4 four   147.    62  3.69  3.19  20       2 FALSE  TRUE   TRUE   FALSE 
#>  9  22.8 four   141.    95  3.92  3.15  22.9     2 FALSE  TRUE   TRUE   FALSE 
#> 10  19.2 six    168.   123  3.92  3.44  18.3     4 FALSE  TRUE   TRUE   FALSE 
#>    `gear=3` `gear=4` `gear=5`
#>    <lgl>    <lgl>    <lgl>   
#>  1 FALSE    TRUE     FALSE   
#>  2 FALSE    TRUE     FALSE   
#>  3 FALSE    TRUE     FALSE   
#>  4 TRUE     FALSE    FALSE   
#>  5 TRUE     FALSE    FALSE   
#>  6 TRUE     FALSE    FALSE   
#>  7 TRUE     FALSE    FALSE   
#>  8 FALSE    TRUE     FALSE   
#>  9 FALSE    TRUE     FALSE   
#> 10 FALSE    TRUE     FALSE   
#> # ℹ 22 more rows
```
…
The `"crisp"` method divides the range of values of the selected columns
into intervals specified by the `.breaks` argument and then encodes the
values into dummy logical columns corresponding to the intervals. The
`.breaks` argument is a numeric vector that specifies the interval
boundaries.

For example, the `mpg` values can be divided into four intervals: (-Inf,
15\], (15, 20\], (20, 30\], and (30, Inf). The `.breaks` argument is
then the vector `c(-Inf, 15, 20, 30, Inf)`, which defines the boundaries
of these intervals.

``` r
partition(mtcars_example, mpg, .method = "crisp", .breaks = c(-Inf, 15, 20, 30, Inf))
#> # A tibble: 32 × 14
#>    cyl    disp    hp  drat    wt  qsec    vs    am  gear  carb `mpg=(-Inf;15]`
#>    <fct> <dbl> <dbl> <dbl> <dbl> <dbl> <dbl> <dbl> <dbl> <dbl> <lgl>          
#>  1 six    160    110  3.9   2.62  16.5     0     1     4     4 FALSE          
#>  2 six    160    110  3.9   2.88  17.0     0     1     4     4 FALSE          
#>  3 four   108     93  3.85  2.32  18.6     1     1     4     1 FALSE          
#>  4 six    258    110  3.08  3.22  19.4     1     0     3     1 FALSE          
#>  5 eight  360    175  3.15  3.44  17.0     0     0     3     2 FALSE          
#>  6 six    225    105  2.76  3.46  20.2     1     0     3     1 FALSE          
#>  7 eight  360    245  3.21  3.57  15.8     0     0     3     4 TRUE           
#>  8 four   147.    62  3.69  3.19  20       1     0     4     2 FALSE          
#>  9 four   141.    95  3.92  3.15  22.9     1     0     4     2 FALSE          
#> 10 six    168.   123  3.92  3.44  18.3     1     0     4     4 FALSE          
#>    `mpg=(15;20]` `mpg=(20;30]` `mpg=(30;Inf]`
#>    <lgl>         <lgl>         <lgl>         
#>  1 FALSE         TRUE          FALSE         
#>  2 FALSE         TRUE          FALSE         
#>  3 FALSE         TRUE          FALSE         
#>  4 FALSE         TRUE          FALSE         
#>  5 TRUE          FALSE         FALSE         
#>  6 TRUE          FALSE         FALSE         
#>  7 FALSE         FALSE         FALSE         
#>  8 FALSE         TRUE          FALSE         
#>  9 FALSE         TRUE          FALSE         
#> 10 TRUE          FALSE         FALSE         
#> # ℹ 22 more rows
```

Note: it is advisable to put `-Inf` and `Inf` as the first and last
elements of the `.breaks` vector to ensure that all values are covered
by the intervals.

If we want the breaks to be evenly spaced across the range of values, we
can set `.breaks` to a single integer. This value specifies the number
of intervals to create. For example, the following command divides the
`disp` values into three intervals of equal width:

``` r
partition(mtcars_example, disp, .method = "crisp", .breaks = 3)
#> # A tibble: 32 × 13
#>      mpg cyl      hp  drat    wt  qsec    vs    am  gear  carb `disp=(-Inf;205]`
#>    <dbl> <fct> <dbl> <dbl> <dbl> <dbl> <dbl> <dbl> <dbl> <dbl> <lgl>            
#>  1  21   six     110  3.9   2.62  16.5     0     1     4     4 TRUE             
#>  2  21   six     110  3.9   2.88  17.0     0     1     4     4 TRUE             
#>  3  22.8 four     93  3.85  2.32  18.6     1     1     4     1 TRUE             
#>  4  21.4 six     110  3.08  3.22  19.4     1     0     3     1 FALSE            
#>  5  18.7 eight   175  3.15  3.44  17.0     0     0     3     2 FALSE            
#>  6  18.1 six     105  2.76  3.46  20.2     1     0     3     1 FALSE            
#>  7  14.3 eight   245  3.21  3.57  15.8     0     0     3     4 FALSE            
#>  8  24.4 four     62  3.69  3.19  20       1     0     4     2 TRUE             
#>  9  22.8 four     95  3.92  3.15  22.9     1     0     4     2 TRUE             
#> 10  19.2 six     123  3.92  3.44  18.3     1     0     4     4 TRUE             
#>    `disp=(205;338]` `disp=(338;Inf]`
#>    <lgl>            <lgl>           
#>  1 FALSE            FALSE           
#>  2 FALSE            FALSE           
#>  3 FALSE            FALSE           
#>  4 TRUE             FALSE           
#>  5 FALSE            TRUE            
#>  6 TRUE             FALSE           
#>  7 FALSE            TRUE            
#>  8 FALSE            FALSE           
#>  9 FALSE            FALSE           
#> 10 FALSE            FALSE           
#> # ℹ 22 more rows
```
…
These methods are particularly useful when the data distribution is
skewed or has natural clusters. For example, quantile-based partitioning
ensures that each interval contains approximately the same number of
observations, which can be valuable for imbalanced datasets.

Here are examples using the CO2 dataset:

``` r
# Equal-width intervals (default)
partition(CO2, conc, .method = "crisp", .breaks = 4, .style = "equal")
#> # A tibble: 84 × 8
#>    Plant Type   Treatment  uptake `conc=(-Inf;321]` `conc=(321;548]`
#>    <ord> <fct>  <fct>       <dbl> <lgl>             <lgl>           
#>  1 Qn1   Quebec nonchilled   16   TRUE              FALSE           
#>  2 Qn1   Quebec nonchilled   30.4 TRUE              FALSE           
#>  3 Qn1   Quebec nonchilled   34.8 TRUE              FALSE           
#>  4 Qn1   Quebec nonchilled   37.2 FALSE             TRUE            
#>  5 Qn1   Quebec nonchilled   35.3 FALSE             TRUE            
#>  6 Qn1   Quebec nonchilled   39.2 FALSE             FALSE           
#>  7 Qn1   Quebec nonchilled   39.7 FALSE             FALSE           
#>  8 Qn2   Quebec nonchilled   13.6 TRUE              FALSE           
#>  9 Qn2   Quebec nonchilled   27.3 TRUE              FALSE           
#> 10 Qn2   Quebec nonchilled   37.1 TRUE              FALSE           
#>    `conc=(548;774]` `conc=(774;Inf]`
#>    <lgl>            <lgl>           
#>  1 FALSE            FALSE           
#>  2 FALSE            FALSE           
#>  3 FALSE            FALSE           
#>  4 FALSE            FALSE           
#>  5 FALSE            FALSE           
#>  6 TRUE             FALSE           
#>  7 FALSE            TRUE            
#>  8 FALSE            FALSE           
#>  9 FALSE            FALSE           
#> 10 FALSE            FALSE           
#> # ℹ 74 more rows
```

``` r
# Quantile-based intervals (equal frequency in each interval)
partition(CO2, conc, .method = "crisp", .breaks = 4, .style = "quantile")
#> # A tibble: 84 × 8
#>    Plant Type   Treatment  uptake `conc=(-Inf;175]` `conc=(175;350]`
#>    <ord> <fct>  <fct>       <dbl> <lgl>             <lgl>           
#>  1 Qn1   Quebec nonchilled   16   TRUE              FALSE           
#>  2 Qn1   Quebec nonchilled   30.4 TRUE              FALSE           
#>  3 Qn1   Quebec nonchilled   34.8 FALSE             TRUE            
#>  4 Qn1   Quebec nonchilled   37.2 FALSE             TRUE            
#>  5 Qn1   Quebec nonchilled   35.3 FALSE             FALSE           
#>  6 Qn1   Quebec nonchilled   39.2 FALSE             FALSE           
#>  7 Qn1   Quebec nonchilled   39.7 FALSE             FALSE           
#>  8 Qn2   Quebec nonchilled   13.6 TRUE              FALSE           
#>  9 Qn2   Quebec nonchilled   27.3 TRUE              FALSE           
#> 10 Qn2   Quebec nonchilled   37.1 FALSE             TRUE            
#>    `conc=(350;675]` `conc=(675;Inf]`
#>    <lgl>            <lgl>           
#>  1 FALSE            FALSE           
#>  2 FALSE            FALSE           
#>  3 FALSE            FALSE           
#>  4 FALSE            FALSE           
#>  5 TRUE             FALSE           
#>  6 TRUE             FALSE           
#>  7 FALSE            TRUE            
#>  8 FALSE            FALSE           
#>  9 FALSE            FALSE           
#> 10 FALSE            FALSE           
#> # ℹ 74 more rows
```

``` r
# K-means clustering to find natural breakpoints
partition(CO2, conc, .method = "crisp", .breaks = 4, .style = "kmeans")
#> # A tibble: 84 × 8
#>    Plant Type   Treatment  uptake `conc=(-Inf;212]` `conc=(212;425]`
#>    <ord> <fct>  <fct>       <dbl> <lgl>             <lgl>           
#>  1 Qn1   Quebec nonchilled   16   TRUE              FALSE           
#>  2 Qn1   Quebec nonchilled   30.4 TRUE              FALSE           
#>  3 Qn1   Quebec nonchilled   34.8 FALSE             TRUE            
#>  4 Qn1   Quebec nonchilled   37.2 FALSE             TRUE            
#>  5 Qn1   Quebec nonchilled   35.3 FALSE             FALSE           
#>  6 Qn1   Quebec nonchilled   39.2 FALSE             FALSE           
#>  7 Qn1   Quebec nonchilled   39.7 FALSE             FALSE           
#>  8 Qn2   Quebec nonchilled   13.6 TRUE              FALSE           
#>  9 Qn2   Quebec nonchilled   27.3 TRUE              FALSE           
#> 10 Qn2   Quebec nonchilled   37.1 FALSE             TRUE            
#>    `conc=(425;838]` `conc=(838;Inf]`
#>    <lgl>            <lgl>           
#>  1 FALSE            FALSE           
#>  2 FALSE            FALSE           
#>  3 FALSE            FALSE           
#>  4 FALSE            FALSE           
#>  5 TRUE             FALSE           
#>  6 TRUE             FALSE           
#>  7 FALSE            TRUE            
#>  8 FALSE            FALSE           
#>  9 FALSE            FALSE           
#> 10 FALSE            FALSE           
#> # ℹ 74 more rows
```

``` r
# Standard deviation-based intervals
partition(CO2, conc, .method = "crisp", .breaks = 4, .style = "sd")
#> # A tibble: 84 × 8
#>    Plant Type   Treatment  uptake `conc=(-Inf;139]` `conc=(139;435]`
#>    <ord> <fct>  <fct>       <dbl> <lgl>             <lgl>           
#>  1 Qn1   Quebec nonchilled   16   TRUE              FALSE           
#>  2 Qn1   Quebec nonchilled   30.4 FALSE             TRUE            
#>  3 Qn1   Quebec nonchilled   34.8 FALSE             TRUE            
#>  4 Qn1   Quebec nonchilled   37.2 FALSE             TRUE            
#>  5 Qn1   Quebec nonchilled   35.3 FALSE             FALSE           
#>  6 Qn1   Quebec nonchilled   39.2 FALSE             FALSE           
#>  7 Qn1   Quebec nonchilled   39.7 FALSE             FALSE           
#>  8 Qn2   Quebec nonchilled   13.6 TRUE              FALSE           
#>  9 Qn2   Quebec nonchilled   27.3 FALSE             TRUE            
#> 10 Qn2   Quebec nonchilled   37.1 FALSE             TRUE            
#>    `conc=(435;731]` `conc=(731;Inf]`
#>    <lgl>            <lgl>           
#>  1 FALSE            FALSE           
#>  2 FALSE            FALSE           
#>  3 FALSE            FALSE           
#>  4 FALSE            FALSE           
#>  5 TRUE             FALSE           
#>  6 TRUE             FALSE           
#>  7 FALSE            TRUE            
#>  8 FALSE            FALSE           
#>  9 FALSE            FALSE           
#> 10 FALSE            FALSE           
#> # ℹ 74 more rows
```

The `.style_params` argument allows you to pass additional parameters to
the underlying algorithm. This should be a named list of arguments
accepted by the respective method in
[`classInt::classIntervals()`](https://r-spatial.github.io/classInt/reference/classIntervals.html).

For example, when using k-means clustering, you can specify the
algorithm:

``` r
# Use Lloyd's algorithm for k-means
partition(CO2, conc, .method = "crisp", .breaks = 4, 
          .style = "kmeans", 
          .style_params = list(algorithm = "Lloyd"))
#> # A tibble: 84 × 8
#>    Plant Type   Treatment  uptake `conc=(-Inf;300]` `conc=(300;588]`
#>    <ord> <fct>  <fct>       <dbl> <lgl>             <lgl>           
#>  1 Qn1   Quebec nonchilled   16   TRUE              FALSE           
#>  2 Qn1   Quebec nonchilled   30.4 TRUE              FALSE           
#>  3 Qn1   Quebec nonchilled   34.8 TRUE              FALSE           
#>  4 Qn1   Quebec nonchilled   37.2 FALSE             TRUE            
#>  5 Qn1   Quebec nonchilled   35.3 FALSE             TRUE            
#>  6 Qn1   Quebec nonchilled   39.2 FALSE             FALSE           
#>  7 Qn1   Quebec nonchilled   39.7 FALSE             FALSE           
#>  8 Qn2   Quebec nonchilled   13.6 TRUE              FALSE           
#>  9 Qn2   Quebec nonchilled   27.3 TRUE              FALSE           
#> 10 Qn2   Quebec nonchilled   37.1 TRUE              FALSE           
#>    `conc=(588;838]` `conc=(838;Inf]`
#>    <lgl>            <lgl>           
#>  1 FALSE            FALSE           
#>  2 FALSE            FALSE           
#>  3 FALSE            FALSE           
#>  4 FALSE            FALSE           
#>  5 FALSE            FALSE           
#>  6 TRUE             FALSE           
#>  7 FALSE            TRUE            
#>  8 FALSE            FALSE           
#>  9 FALSE            FALSE           
#> 10 FALSE            FALSE           
#> # ℹ 74 more rows
```

When using quantile-based intervals, you can control the quantile type:

``` r
# Use different quantile types (see ?quantile for details)
partition(CO2, conc, .method = "crisp", .breaks = 4, 
          .style = "quantile", 
          .style_params = list(type = 7))
#> # A tibble: 84 × 8
#>    Plant Type   Treatment  uptake `conc=(-Inf;175]` `conc=(175;350]`
#>    <ord> <fct>  <fct>       <dbl> <lgl>             <lgl>           
#>  1 Qn1   Quebec nonchilled   16   TRUE              FALSE           
#>  2 Qn1   Quebec nonchilled   30.4 TRUE              FALSE           
#>  3 Qn1   Quebec nonchilled   34.8 FALSE             TRUE            
#>  4 Qn1   Quebec nonchilled   37.2 FALSE             TRUE            
#>  5 Qn1   Quebec nonchilled   35.3 FALSE             FALSE           
#>  6 Qn1   Quebec nonchilled   39.2 FALSE             FALSE           
#>  7 Qn1   Quebec nonchilled   39.7 FALSE             FALSE           
#>  8 Qn2   Quebec nonchilled   13.6 TRUE              FALSE           
#>  9 Qn2   Quebec nonchilled   27.3 TRUE              FALSE           
#> 10 Qn2   Quebec nonchilled   37.1 FALSE             TRUE            
#>    `conc=(350;675]` `conc=(675;Inf]`
#>    <lgl>            <lgl>           
#>  1 FALSE            FALSE           
#>  2 FALSE            FALSE           
#>  3 FALSE            FALSE           
#>  4 FALSE            FALSE           
#>  5 TRUE             FALSE           
#>  6 TRUE             FALSE           
#>  7 FALSE            TRUE            
#>  8 FALSE            FALSE           
#>  9 FALSE            FALSE           
#> 10 FALSE            FALSE           
#> # ℹ 74 more rows
```
…
