Data Preparation • nuggets
…
The partition() function requires the dataset as its
first argument and a tidyselect selection expression to select
the columns to be transformed. For example, the vs column
in mtcars_example is a logical column indicating the engine
type (V-shaped or straight):

partition(mtcars_example, vs)
#> # A tibble: 32 × 12
#>      mpg cyl    disp    hp  drat    wt  qsec    am  gear  carb `vs=T` `vs=F`
#>    <dbl> <fct> <dbl> <dbl> <dbl> <dbl> <dbl> <dbl> <dbl> <dbl> <lgl>  <lgl> 
#>  1  21   six    160    110  3.9   2.62  16.5     1     4     4 FALSE  TRUE  
#>  2  21   six    160    110  3.9   2.88  17.0     1     4     4 FALSE  TRUE  
#>  3  22.8 four   108     93  3.85  2.32  18.6     1     4     1 TRUE   FALSE 
#>  4  21.4 six    258    110  3.08  3.22  19.4     0     3     1 TRUE   FALSE 
#>  5  18.7 eight  360    175  3.15  3.44  17.0     0     3     2 FALSE  TRUE  
#>  6  18.1 six    225    105  2.76  3.46  20.2     0     3     1 TRUE   FALSE 
#>  7  14.3 eight  360    245  3.21  3.57  15.8     0     3     4 FALSE  TRUE  
#>  8  24.4 four   147.    62  3.69  3.19  20       0     4     2 TRUE   FALSE 
#>  9  22.8 four   141.    95  3.92  3.15  22.9     0     4     2 TRUE   FALSE 
#> 10  19.2 six    168.   123  3.92  3.44  18.3     0     4     4 TRUE   FALSE 
#> # ℹ 22 more rows

Preparation of Predicates from Factors

Factor columns are expanded into logical predicates representing
subsets of their levels. By default, one predicate per level is created
(.subsets = 1).

The cyl column in mtcars_example is a
factor with three levels. Factors are transformed to dummy logical
columns by the partition() function automatically:

partition(mtcars_example, cyl)
#> # A tibble: 32 × 13
#>      mpg  disp    hp  drat    wt  qsec vs       am  gear  carb `cyl=four`
#>    <dbl> <dbl> <dbl> <dbl> <dbl> <dbl> <lgl> <dbl> <dbl> <dbl> <lgl>     
#>  1  21    160    110  3.9   2.62  16.5 FALSE     1     4     4 FALSE     
#>  2  21    160    110  3.9   2.88  17.0 FALSE     1     4     4 FALSE     
#>  3  22.8  108     93  3.85  2.32  18.6 TRUE      1     4     1 TRUE      
#>  4  21.4  258    110  3.08  3.22  19.4 TRUE      0     3     1 FALSE     
#>  5  18.7  360    175  3.15  3.44  17.0 FALSE     0     3     2 FALSE     
#>  6  18.1  225    105  2.76  3.46  20.2 TRUE      0     3     1 FALSE     
#>  7  14.3  360    245  3.21  3.57  15.8 FALSE     0     3     4 FALSE     
#>  8  24.4  147.    62  3.69  3.19  20   TRUE      0     4     2 TRUE      
#>  9  22.8  141.    95  3.92  3.15  22.9 TRUE      0     4     2 TRUE      
#> 10  19.2  168.   123  3.92  3.44  18.3 TRUE      0     4     4 FALSE     
#>    `cyl=six` `cyl=eight`
#>    <lgl>     <lgl>      
#>  1 TRUE      FALSE      
#>  2 TRUE      FALSE      
#>  3 FALSE     FALSE      
#>  4 TRUE      FALSE      
#>  5 FALSE     TRUE       
#>  6 TRUE      FALSE      
#>  7 FALSE     TRUE       
#>  8 FALSE     FALSE      
#>  9 FALSE     FALSE      
#> 10 TRUE      FALSE      
#> # ℹ 22 more rows
…
For ordered factors, only subsets formed by
consecutive levels are created.

Subset sizes equal to the total number of levels are rejected,
because they would produce a predicate that is always TRUE
for all non-missing values.

For example, cyl is an unordered factor with three
levels:

# Default: one predicate per level
partition(mtcars_example, cyl)
#> # A tibble: 32 × 13
#>      mpg  disp    hp  drat    wt  qsec vs       am  gear  carb `cyl=four`
#>    <dbl> <dbl> <dbl> <dbl> <dbl> <dbl> <lgl> <dbl> <dbl> <dbl> <lgl>     
#>  1  21    160    110  3.9   2.62  16.5 FALSE     1     4     4 FALSE     
#>  2  21    160    110  3.9   2.88  17.0 FALSE     1     4     4 FALSE     
#>  3  22.8  108     93  3.85  2.32  18.6 TRUE      1     4     1 TRUE      
#>  4  21.4  258    110  3.08  3.22  19.4 TRUE      0     3     1 FALSE     
#>  5  18.7  360    175  3.15  3.44  17.0 FALSE     0     3     2 FALSE     
#>  6  18.1  225    105  2.76  3.46  20.2 TRUE      0     3     1 FALSE     
#>  7  14.3  360    245  3.21  3.57  15.8 FALSE     0     3     4 FALSE     
#>  8  24.4  147.    62  3.69  3.19  20   TRUE      0     4     2 TRUE      
#>  9  22.8  141.    95  3.92  3.15  22.9 TRUE      0     4     2 TRUE      
#> 10  19.2  168.   123  3.92  3.44  18.3 TRUE      0     4     4 FALSE     
#>    `cyl=six` `cyl=eight`
#>    <lgl>     <lgl>      
#>  1 TRUE      FALSE      
#>  2 TRUE      FALSE      
#>  3 FALSE     FALSE      
#>  4 TRUE      FALSE      
#>  5 FALSE     TRUE       
#>  6 TRUE      FALSE      
#>  7 FALSE     TRUE       
#>  8 FALSE     FALSE      
#>  9 FALSE     FALSE      
#> 10 TRUE      FALSE      
#> # ℹ 22 more rows

# Merge pairs of levels - all pairs are created for unordered factors
partition(mtcars_example, cyl, .subsets = 2)
#> # A tibble: 32 × 13
#>      mpg  disp    hp  drat    wt  qsec vs       am  gear  carb `cyl=four,six`
#>    <dbl> <dbl> <dbl> <dbl> <dbl> <dbl> <lgl> <dbl> <dbl> <dbl> <lgl>         
#>  1  21    160    110  3.9   2.62  16.5 FALSE     1     4     4 TRUE          
#>  2  21    160    110  3.9   2.88  17.0 FALSE     1     4     4 TRUE          
#>  3  22.8  108     93  3.85  2.32  18.6 TRUE      1     4     1 TRUE          
#>  4  21.4  258    110  3.08  3.22  19.4 TRUE      0     3     1 TRUE          
#>  5  18.7  360    175  3.15  3.44  17.0 FALSE     0     3     2 FALSE         
#>  6  18.1  225    105  2.76  3.46  20.2 TRUE      0     3     1 TRUE          
#>  7  14.3  360    245  3.21  3.57  15.8 FALSE     0     3     4 FALSE         
#>  8  24.4  147.    62  3.69  3.19  20   TRUE      0     4     2 TRUE          
#>  9  22.8  141.    95  3.92  3.15  22.9 TRUE      0     4     2 TRUE          
#> 10  19.2  168.   123  3.92  3.44  18.3 TRUE      0     4     4 TRUE          
#>    `cyl=four,eight` `cyl=six,eight`
#>    <lgl>            <lgl>          
#>  1 FALSE            TRUE           
#>  2 FALSE            TRUE           
#>  3 TRUE             FALSE          
#>  4 FALSE            TRUE           
#>  5 TRUE             TRUE           
#>  6 FALSE            TRUE           
#>  7 TRUE             TRUE           
#>  8 TRUE             FALSE          
#>  9 TRUE             FALSE          
#> 10 FALSE            TRUE           
#> # ℹ 22 more rows

# Create both individual and merged predicates
partition(mtcars_example, cyl, .subsets = c(1, 2))
#> # A tibble: 32 × 16
#>      mpg  disp    hp  drat    wt  qsec vs       am  gear  carb `cyl=four`
#>    <dbl> <dbl> <dbl> <dbl> <dbl> <dbl> <lgl> <dbl> <dbl> <dbl> <lgl>     
#>  1  21    160    110  3.9   2.62  16.5 FALSE     1     4     4 FALSE     
#>  2  21    160    110  3.9   2.88  17.0 FALSE     1     4     4 FALSE     
#>  3  22.8  108     93  3.85  2.32  18.6 TRUE      1     4     1 TRUE      
#>  4  21.4  258    110  3.08  3.22  19.4 TRUE      0     3     1 FALSE     
#>  5  18.7  360    175  3.15  3.44  17.0 FALSE     0     3     2 FALSE     
#>  6  18.1  225    105  2.76  3.46  20.2 TRUE      0     3     1 FALSE     
#>  7  14.3  360    245  3.21  3.57  15.8 FALSE     0     3     4 FALSE     
#>  8  24.4  147.    62  3.69  3.19  20   TRUE      0     4     2 TRUE      
#>  9  22.8  141.    95  3.92  3.15  22.9 TRUE      0     4     2 TRUE      
#> 10  19.2  168.   123  3.92  3.44  18.3 TRUE      0     4     4 FALSE     
#>    `cyl=six` `cyl=eight` `cyl=four,six` `cyl=four,eight` `cyl=six,eight`
#>    <lgl>     <lgl>       <lgl>          <lgl>            <lgl>          
#>  1 TRUE      FALSE       TRUE           FALSE            TRUE           
#>  2 TRUE      FALSE       TRUE           FALSE            TRUE           
#>  3 FALSE     FALSE       TRUE           TRUE             FALSE          
#>  4 TRUE      FALSE       TRUE           FALSE            TRUE           
#>  5 FALSE     TRUE        FALSE          TRUE             TRUE           
#>  6 TRUE      FALSE       TRUE           FALSE            TRUE           
#>  7 FALSE     TRUE        FALSE          TRUE             TRUE           
#>  8 FALSE     FALSE       TRUE           TRUE             FALSE          
#>  9 FALSE     FALSE       TRUE           TRUE             FALSE          
#> 10 TRUE      FALSE       TRUE           FALSE            TRUE           
#> # ℹ 22 more rows

For ordered factors, only consecutive levels are merged. To
illustrate, let us create an ordered version of the cyl
column:

mtcars_example$cyl_ord <- ordered(mtcars$cyl,
                                  levels = c(4, 6, 8),
                                  labels = c("four", "six", "eight"))

# Default: one predicate per level
partition(mtcars_example, cyl_ord)
#> # A tibble: 32 × 14
#>      mpg cyl    disp    hp  drat    wt  qsec vs       am  gear  carb
#>    <dbl> <fct> <dbl> <dbl> <dbl> <dbl> <dbl> <lgl> <dbl> <dbl> <dbl>
#>  1  21   six    160    110  3.9   2.62  16.5 FALSE     1     4     4
#>  2  21   six    160    110  3.9   2.88  17.0 FALSE     1     4     4
#>  3  22.8 four   108     93  3.85  2.32  18.6 TRUE      1     4     1
#>  4  21.4 six    258    110  3.08  3.22  19.4 TRUE      0     3     1
#>  5  18.7 eight  360    175  3.15  3.44  17.0 FALSE     0     3     2
#>  6  18.1 six    225    105  2.76  3.46  20.2 TRUE      0     3     1
#>  7  14.3 eight  360    245  3.21  3.57  15.8 FALSE     0     3     4
#>  8  24.4 four   147.    62  3.69  3.19  20   TRUE      0     4     2
#>  9  22.8 four   141.    95  3.92  3.15  22.9 TRUE      0     4     2
#> 10  19.2 six    168.   123  3.92  3.44  18.3 TRUE      0     4     4
#>    `cyl_ord=four` `cyl_ord=six` `cyl_ord=eight`
#>    <lgl>          <lgl>         <lgl>          
#>  1 FALSE          TRUE          FALSE          
#>  2 FALSE          TRUE          FALSE          
#>  3 TRUE           FALSE         FALSE          
#>  4 FALSE          TRUE          FALSE          
#>  5 FALSE          FALSE         TRUE           
#>  6 FALSE          TRUE          FALSE          
#>  7 FALSE          FALSE         TRUE           
#>  8 TRUE           FALSE         FALSE          
#>  9 TRUE           FALSE         FALSE          
#> 10 FALSE          TRUE          FALSE          
#> # ℹ 22 more rows

# Only consecutive pairs are created for ordered factors
partition(mtcars_example, cyl_ord, .subsets = 2)
#> # A tibble: 32 × 13
#>      mpg cyl    disp    hp  drat    wt  qsec vs       am  gear  carb
#>    <dbl> <fct> <dbl> <dbl> <dbl> <dbl> <dbl> <lgl> <dbl> <dbl> <dbl>
#>  1  21   six    160    110  3.9   2.62  16.5 FALSE     1     4     4
#>  2  21   six    160    110  3.9   2.88  17.0 FALSE     1     4     4
#>  3  22.8 four   108     93  3.85  2.32  18.6 TRUE      1     4     1
#>  4  21.4 six    258    110  3.08  3.22  19.4 TRUE      0     3     1
#>  5  18.7 eight  360    175  3.15  3.44  17.0 FALSE     0     3     2
#>  6  18.1 six    225    105  2.76  3.46  20.2 TRUE      0     3     1
#>  7  14.3 eight  360    245  3.21  3.57  15.8 FALSE     0     3     4
#>  8  24.4 four   147.    62  3.69  3.19  20   TRUE      0     4     2
#>  9  22.8 four   141.    95  3.92  3.15  22.9 TRUE      0     4     2
#> 10  19.2 six    168.   123  3.92  3.44  18.3 TRUE      0     4     4
#>    `cyl_ord=four,six` `cyl_ord=six,eight`
#>    <lgl>              <lgl>              
#>  1 TRUE               TRUE               
#>  2 TRUE               TRUE               
#>  3 TRUE               FALSE              
#>  4 TRUE               TRUE               
#>  5 FALSE              TRUE               
#>  6 TRUE               TRUE               
#>  7 FALSE              TRUE               
#>  8 TRUE               FALSE              
#>  9 TRUE               FALSE              
#> 10 TRUE               TRUE               
#> # ℹ 22 more rows

# Both individual levels and consecutive pairs
partition(mtcars_example, cyl_ord, .subsets = c(1, 2))
#> # A tibble: 32 × 16
#>      mpg cyl    disp    hp  drat    wt  qsec vs       am  gear  carb
#>    <dbl> <fct> <dbl> <dbl> <dbl> <dbl> <dbl> <lgl> <dbl> <dbl> <dbl>
#>  1  21   six    160    110  3.9   2.62  16.5 FALSE     1     4     4
#>  2  21   six    160    110  3.9   2.88  17.0 FALSE     1     4     4
#>  3  22.8 four   108     93  3.85  2.32  18.6 TRUE      1     4     1
#>  4  21.4 six    258    110  3.08  3.22  19.4 TRUE      0     3     1
#>  5  18.7 eight  360    175  3.15  3.44  17.0 FALSE     0     3     2
#>  6  18.1 six    225    105  2.76  3.46  20.2 TRUE      0     3     1
#>  7  14.3 eight  360    245  3.21  3.57  15.8 FALSE     0     3     4
#>  8  24.4 four   147.    62  3.69  3.19  20   TRUE      0     4     2
#>  9  22.8 four   141.    95  3.92  3.15  22.9 TRUE      0     4     2
#> 10  19.2 six    168.   123  3.92  3.44  18.3 TRUE      0     4     4
#>    `cyl_ord=four` `cyl_ord=six` `cyl_ord=eight` `cyl_ord=four,six`
#>    <lgl>          <lgl>         <lgl>           <lgl>             
#>  1 FALSE          TRUE          FALSE           TRUE              
#>  2 FALSE          TRUE          FALSE           TRUE              
#>  3 TRUE           FALSE         FALSE           TRUE              
#>  4 FALSE          TRUE          FALSE           TRUE              
#>  5 FALSE          FALSE         TRUE            FALSE             
#>  6 FALSE          TRUE          FALSE           TRUE              
#>  7 FALSE          FALSE         TRUE            FALSE             
#>  8 TRUE           FALSE         FALSE           TRUE              
#>  9 TRUE           FALSE         FALSE           TRUE              
#> 10 FALSE          TRUE          FALSE           TRUE              
#>    `cyl_ord=six,eight`
#>    <lgl>              
#>  1 TRUE               
#>  2 TRUE               
#>  3 FALSE              
#>  4 TRUE               
#>  5 TRUE               
#>  6 TRUE               
#>  7 TRUE               
#>  8 FALSE              
#>  9 FALSE              
#> 10 TRUE               
#> # ℹ 22 more rows
…
there exist other methods of partitioning of numeric columns. These
methods create fuzzy predicates and are described in the next
section.

The am and gear columns in
mtcars_example are numeric but actually represent
categories. To transform them to dummy logical columns in the same way
as factors, we can use the partition() function with the
.method argument set to "dummy":

partition(mtcars_example, am:gear, .method = "dummy")
#> # A tibble: 32 × 15
#>      mpg cyl    disp    hp  drat    wt  qsec vs     carb cyl_ord `am=0` `am=1`
#>    <dbl> <fct> <dbl> <dbl> <dbl> <dbl> <dbl> <lgl> <dbl> <ord>   <lgl>  <lgl> 
#>  1  21   six    160    110  3.9   2.62  16.5 FALSE     4 six     FALSE  TRUE  
#>  2  21   six    160    110  3.9   2.88  17.0 FALSE     4 six     FALSE  TRUE  
#>  3  22.8 four   108     93  3.85  2.32  18.6 TRUE      1 four    FALSE  TRUE  
#>  4  21.4 six    258    110  3.08  3.22  19.4 TRUE      1 six     TRUE   FALSE 
#>  5  18.7 eight  360    175  3.15  3.44  17.0 FALSE     2 eight   TRUE   FALSE 
#>  6  18.1 six    225    105  2.76  3.46  20.2 TRUE      1 six     TRUE   FALSE 
#>  7  14.3 eight  360    245  3.21  3.57  15.8 FALSE     4 eight   TRUE   FALSE 
#>  8  24.4 four   147.    62  3.69  3.19  20   TRUE      2 four    TRUE   FALSE 
#>  9  22.8 four   141.    95  3.92  3.15  22.9 TRUE      2 four    TRUE   FALSE 
#> 10  19.2 six    168.   123  3.92  3.44  18.3 TRUE      4 six     TRUE   FALSE 
#>    `gear=3` `gear=4` `gear=5`
#>    <lgl>    <lgl>    <lgl>   
#>  1 FALSE    TRUE     FALSE   
#>  2 FALSE    TRUE     FALSE   
#>  3 FALSE    TRUE     FALSE   
#>  4 TRUE     FALSE    FALSE   
#>  5 TRUE     FALSE    FALSE   
#>  6 TRUE     FALSE    FALSE   
#>  7 TRUE     FALSE    FALSE   
#>  8 FALSE    TRUE     FALSE   
#>  9 FALSE    TRUE     FALSE   
#> 10 FALSE    TRUE     FALSE   
#> # ℹ 22 more rows
…
The "crisp" method divides the range of values of the
selected columns into intervals specified by the .breaks
argument and then encodes the values into dummy logical columns
corresponding to the intervals. The .breaks argument is a
numeric vector that specifies the interval boundaries.

For example, the mpg values can be divided into four
intervals: (-Inf, 15], (15, 20], (20, 30], and (30, Inf). The
.breaks argument is then the vector
c(-Inf, 15, 20, 30, Inf), which defines the boundaries of
these intervals.

partition(mtcars_example, mpg, .method = "crisp", .breaks = c(-Inf, 15, 20, 30, Inf))
#> # A tibble: 32 × 15
#>    cyl    disp    hp  drat    wt  qsec vs       am  gear  carb cyl_ord
#>    <fct> <dbl> <dbl> <dbl> <dbl> <dbl> <lgl> <dbl> <dbl> <dbl> <ord>  
#>  1 six    160    110  3.9   2.62  16.5 FALSE     1     4     4 six    
#>  2 six    160    110  3.9   2.88  17.0 FALSE     1     4     4 six    
#>  3 four   108     93  3.85  2.32  18.6 TRUE      1     4     1 four   
#>  4 six    258    110  3.08  3.22  19.4 TRUE      0     3     1 six    
#>  5 eight  360    175  3.15  3.44  17.0 FALSE     0     3     2 eight  
#>  6 six    225    105  2.76  3.46  20.2 TRUE      0     3     1 six    
#>  7 eight  360    245  3.21  3.57  15.8 FALSE     0     3     4 eight  
#>  8 four   147.    62  3.69  3.19  20   TRUE      0     4     2 four   
#>  9 four   141.    95  3.92  3.15  22.9 TRUE      0     4     2 four   
#> 10 six    168.   123  3.92  3.44  18.3 TRUE      0     4     4 six    
#>    `mpg=(-Inf;15]` `mpg=(15;20]` `mpg=(20;30]` `mpg=(30;Inf]`
#>    <lgl>           <lgl>         <lgl>         <lgl>         
#>  1 FALSE           FALSE         TRUE          FALSE         
#>  2 FALSE           FALSE         TRUE          FALSE         
#>  3 FALSE           FALSE         TRUE          FALSE         
#>  4 FALSE           FALSE         TRUE          FALSE         
#>  5 FALSE           TRUE          FALSE         FALSE         
#>  6 FALSE           TRUE          FALSE         FALSE         
#>  7 TRUE            FALSE         FALSE         FALSE         
#>  8 FALSE           FALSE         TRUE          FALSE         
#>  9 FALSE           FALSE         TRUE          FALSE         
#> 10 FALSE           TRUE          FALSE         FALSE         
#> # ℹ 22 more rows
…
