nuggets: Get Started • nuggets
…
The result is a tibble containing the discovered rules and their
quality metrics. You can arrange them, for example, by decreasing
support:

result <- arrange(result, desc(support))
print(result)
#> # A tibble: 526 × 14
#>    antecedent                     consequent support confidence coverage
#>    <chr>                          <chr>        <dbl>      <dbl>    <dbl>
#>  1 {gear=3}                       {am=0}       0.469      1        0.469
#>  2 {gear=3,vs=0}                  {am=0}       0.375      1        0.375
#>  3 {cyl=eight,gear=3,vs=0}        {am=0}       0.375      1        0.375
#>  4 {cyl=eight,vs=0}               {am=0}       0.375      0.857    0.438
#>  5 {cyl=eight,gear=3}             {am=0}       0.375      1        0.375
#>  6 {cyl=eight}                    {am=0}       0.375      0.857    0.438
#>  7 {mpg=(-Inf;15;20)}             {am=0}       0.327      0.847    0.387
#>  8 {drat=(-Inf;2.76;3.84)}        {am=0}       0.311      0.948    0.328
#>  9 {gear=3,mpg=(-Inf;15;20)}      {am=0}       0.309      1        0.309
#> 10 {drat=(-Inf;2.76;3.84),gear=3} {am=0}       0.307      1        0.307
#>    conseq_support count antecedent_length    pp    pn    np    nn  lift
#>             <dbl> <dbl>             <int> <dbl> <dbl> <dbl> <dbl> <dbl>
#>  1          0.594 15                    1 15    0      4     13    1.68
#>  2          0.594 12                    2 12    0      7     13    1.68
#>  3          0.594 12                    3 12    0      7     13    1.68
#>  4          0.594 12                    2 12    2      7     11    1.44
#>  5          0.594 12                    2 12    0      7     13    1.68
#>  6          0.594 12                    1 12    2      7     11    1.44
#>  7          0.594 10.5                  1 10.5  1.90   8.52  11.1  1.43
#>  8          0.594  9.96                 1  9.96 0.546  9.04  12.5  1.60
#>  9          0.594  9.88                 2  9.88 0      9.12  13.0  1.68
#> 10          0.594  9.82                 2  9.82 0      9.18  13    1.68
#>    conviction
#>         <dbl>
#>  1     Inf   
#>  2     Inf   
#>  3     Inf   
#>  4       2.84
#>  5     Inf   
#>  6       2.84
#>  7       2.65
#>  8       7.82
#>  9     Inf   
#> 10     Inf   
#> # ℹ 516 more rows
…
